{
	"info": {
		"_postman_id": "a69bce31-61f2-4596-a144-41ffea11746a",
		"name": "IAN Conversation 4 Tests",
		"description": "CRUDs Operations of IAN\n\nContact Support:\n Name: Neppo\n Email: neppo@neppo.com.br",
		"schema": "https://schema.getpostman.com/json/collection/v2.1.0/collection.json"
	},
	"item": [
		{
			"name": "cognitions",
			"item": [
				{
					"name": "findAll",
					"event": [
						{
							"listen": "test",
							"script": {
								"id": "3c93b4df-1ba6-4ba4-8c3c-f1c64d6c2690",
								"exec": [
									"pm.test(\"Status code is 200\", function () {",
									"    pm.response.to.have.status(200);",
									"});"
								],
								"type": "text/javascript"
							}
						}
					],
					"request": {
						"auth": {
							"type": "noauth"
						},
						"method": "GET",
						"header": [
							{
								"key": "Authorization",
								"value": "<string>",
								"description": "JWT security token obtained from the service method api/token.Token must be sent in header request e.g: Authorization: Bearer <TOKEN>replacing <TOKEN> by a valid token",
								"disabled": true
							},
							{
								"key": "API-KEY",
								"value": "{{apiKey}}",
								"description": "API KEY are unique to users and are used to access resources without going through prior authentication"
							}
						],
						"url": {
							"raw": "{{baseUrl}}/cognitions?",
							"host": [
								"{{baseUrl}}"
							],
							"path": [
								"cognitions"
							],
							"query": [
								{
									"key": "page",
									"value": "<integer>",
									"description": "page",
									"disabled": true
								},
								{
									"key": "sort",
									"value": "<boolean>",
									"description": "sort",
									"disabled": true
								},
								{
									"key": "direction",
									"value": "<string>",
									"description": "direction",
									"disabled": true
								},
								{
									"key": "column",
									"value": "<string>",
									"description": "column",
									"disabled": true
								},
								{
									"key": "condition",
									"value": "<string>,<string>",
									"description": "condition",
									"disabled": true
								}
							]
						}
					},
					"response": [
						{
							"name": "Not Found",
							"originalRequest": {
								"method": "GET",
								"header": [
									{
										"key": "Authorization",
										"value": "<string>",
										"description": "JWT security token obtained from the service method api/token.Token must be sent in header request e.g: Authorization: Bearer <TOKEN>replacing <TOKEN> by a valid token"
									},
									{
										"key": "API-KEY",
										"value": "{{apiKey}}>",
										"description": "API KEY are unique to users and are used to access resources without going through prior authentication"
									},
									{
										"key": "Authorization",
										"value": "<string>",
										"description": "JWT security token obtained from the service method api/token.Token must be sent in header request e.g: Authorization: Bearer <TOKEN>replacing <TOKEN> by a valid token"
									},
									{
										"key": "API-KEY",
										"value": "{{apiKey}}>",
										"description": "API KEY are unique to users and are used to access resources without going through prior authentication"
									},
									{
										"key": "Authorization",
										"value": "<string>",
										"description": "JWT security token obtained from the service method api/token.Token must be sent in header request e.g: Authorization: Bearer <TOKEN>replacing <TOKEN> by a valid token"
									},
									{
										"key": "API-KEY",
										"value": "{{apiKey}}>",
										"description": "API KEY are unique to users and are used to access resources without going through prior authentication"
									},
									{
										"key": "Authorization",
										"value": "<string>",
										"description": "JWT security token obtained from the service method api/token.Token must be sent in header request e.g: Authorization: Bearer <TOKEN>replacing <TOKEN> by a valid token"
									},
									{
										"key": "API-KEY",
										"value": "{{apiKey}}>",
										"description": "API KEY are unique to users and are used to access resources without going through prior authentication"
									}
								],
								"url": {
									"raw": "{{baseUrl}}/cognitions?page=<integer>&sort=<boolean>&direction=<string>&column=<string>&condition=<string>,<string>",
									"host": [
										"{{baseUrl}}"
									],
									"path": [
										"cognitions"
									],
									"query": [
										{
											"key": "page",
											"value": "<integer>"
										},
										{
											"key": "sort",
											"value": "<boolean>"
										},
										{
											"key": "direction",
											"value": "<string>"
										},
										{
											"key": "column",
											"value": "<string>"
										},
										{
											"key": "condition",
											"value": "<string>,<string>"
										}
									]
								}
							},
							"status": "Not Found",
							"code": 404,
							"_postman_previewlanguage": "text",
							"header": [
								{
									"key": "Content-Type",
									"value": "text/plain"
								}
							],
							"cookie": [],
							"body": ""
						},
						{
							"name": "Forbidden",
							"originalRequest": {
								"method": "GET",
								"header": [],
								"url": {
									"raw": "{{baseUrl}}/cognitions?page=<integer>&sort=<boolean>&direction=<string>&column=<string>&condition=<string>,<string>",
									"host": [
										"{{baseUrl}}"
									],
									"path": [
										"cognitions"
									],
									"query": [
										{
											"key": "page",
											"value": "<integer>"
										},
										{
											"key": "sort",
											"value": "<boolean>"
										},
										{
											"key": "direction",
											"value": "<string>"
										},
										{
											"key": "column",
											"value": "<string>"
										},
										{
											"key": "condition",
											"value": "<string>,<string>"
										}
									]
								}
							},
							"status": "Forbidden",
							"code": 403,
							"_postman_previewlanguage": "text",
							"header": [
								{
									"key": "Content-Type",
									"value": "text/plain"
								}
							],
							"cookie": [],
							"body": ""
						},
						{
							"name": "OK",
							"originalRequest": {
								"method": "GET",
								"header": [],
								"url": {
									"raw": "{{baseUrl}}/cognitions?page=<integer>&sort=<boolean>&direction=<string>&column=<string>&condition=<string>,<string>",
									"host": [
										"{{baseUrl}}"
									],
									"path": [
										"cognitions"
									],
									"query": [
										{
											"key": "page",
											"value": "<integer>"
										},
										{
											"key": "sort",
											"value": "<boolean>"
										},
										{
											"key": "direction",
											"value": "<string>"
										},
										{
											"key": "column",
											"value": "<string>"
										},
										{
											"key": "condition",
											"value": "<string>,<string>"
										}
									]
								}
							},
							"status": "OK",
							"code": 200,
							"_postman_previewlanguage": "json",
							"header": [
								{
									"key": "Content-Type",
									"value": "application/json"
								}
							],
							"cookie": [],
							"body": "{\n \"code\": \"<string>\",\n \"data\": {\n  \"active\": \"<boolean>\",\n  \"client\": \"<string>\",\n  \"createdAt\": \"<dateTime>\",\n  \"createdBy\": \"<string>\",\n  \"createdServingModel\": \"<boolean>\",\n  \"description\": \"<string>\",\n  \"epoch\": \"<long>\",\n  \"externalReference\": \"<string>\",\n  \"hits\": \"<long>\",\n  \"id\": \"<string>\",\n  \"inTraining\": \"<boolean>\",\n  \"language\": \"<string>\",\n  \"lastModified\": \"<dateTime>\",\n  \"modelVersion\": \"<long>\",\n  \"name\": \"<string>\",\n  \"nextModelVersion\": \"<long>\",\n  \"updatedBy\": \"<string>\",\n  \"username\": \"<string>\",\n  \"version\": \"<long>\"\n },\n \"field\": \"<string>\",\n \"message\": \"<string>\",\n \"status\": \"<integer>\"\n}"
						},
						{
							"name": "Unauthorized",
							"originalRequest": {
								"method": "GET",
								"header": [],
								"url": {
									"raw": "{{baseUrl}}/cognitions?page=<integer>&sort=<boolean>&direction=<string>&column=<string>&condition=<string>,<string>",
									"host": [
										"{{baseUrl}}"
									],
									"path": [
										"cognitions"
									],
									"query": [
										{
											"key": "page",
											"value": "<integer>"
										},
										{
											"key": "sort",
											"value": "<boolean>"
										},
										{
											"key": "direction",
											"value": "<string>"
										},
										{
											"key": "column",
											"value": "<string>"
										},
										{
											"key": "condition",
											"value": "<string>,<string>"
										}
									]
								}
							},
							"status": "Unauthorized",
							"code": 401,
							"_postman_previewlanguage": "text",
							"header": [
								{
									"key": "Content-Type",
									"value": "text/plain"
								}
							],
							"cookie": [],
							"body": ""
						}
					]
				}
			],
			"protocolProfileBehavior": {}
		},
		{
			"name": "entities",
			"item": [
				{
					"name": "findAll",
					"event": [
						{
							"listen": "test",
							"script": {
								"id": "59019a80-562a-4f2c-81bf-06fcf6e4faa6",
								"exec": [
									"pm.test(\"Status code is 200\", function () {",
									"    pm.response.to.have.status(200);",
									"});"
								],
								"type": "text/javascript"
							}
						}
					],
					"request": {
						"auth": {
							"type": "noauth"
						},
						"method": "GET",
						"header": [
							{
								"key": "Authorization",
								"value": "<string>",
								"description": "JWT security token obtained from the service method api/token.Token must be sent in header request e.g: Authorization: Bearer <TOKEN>replacing <TOKEN> by a valid token"
							},
							{
								"key": "API-KEY",
								"value": "{{apiKey}}",
								"description": "API KEY are unique to users and are used to access resources without going through prior authentication"
							}
						],
						"url": {
							"raw": "{{baseUrl}}/entities?",
							"host": [
								"{{baseUrl}}"
							],
							"path": [
								"entities"
							],
							"query": [
								{
									"key": "page",
									"value": "<integer>",
									"description": "page",
									"disabled": true
								},
								{
									"key": "sort",
									"value": "<boolean>",
									"description": "sort",
									"disabled": true
								},
								{
									"key": "direction",
									"value": "<string>",
									"description": "direction",
									"disabled": true
								},
								{
									"key": "column",
									"value": "<string>",
									"description": "column",
									"disabled": true
								},
								{
									"key": "condition",
									"value": "<string>,<string>",
									"description": "condition",
									"disabled": true
								}
							]
						}
					},
					"response": [
						{
							"name": "OK",
							"originalRequest": {
								"method": "GET",
								"header": [],
								"url": {
									"raw": "{{baseUrl}}/entities?page=<integer>&sort=<boolean>&direction=<string>&column=<string>&condition=<string>,<string>",
									"host": [
										"{{baseUrl}}"
									],
									"path": [
										"entities"
									],
									"query": [
										{
											"key": "page",
											"value": "<integer>"
										},
										{
											"key": "sort",
											"value": "<boolean>"
										},
										{
											"key": "direction",
											"value": "<string>"
										},
										{
											"key": "column",
											"value": "<string>"
										},
										{
											"key": "condition",
											"value": "<string>,<string>"
										}
									]
								}
							},
							"status": "OK",
							"code": 200,
							"_postman_previewlanguage": "json",
							"header": [
								{
									"key": "Content-Type",
									"value": "application/json"
								}
							],
							"cookie": [],
							"body": "{\n \"code\": \"<string>\",\n \"data\": {\n  \"active\": \"<boolean>\",\n  \"cognition\": {\n   \"active\": \"<boolean>\",\n   \"client\": \"<string>\",\n   \"createdAt\": \"<dateTime>\",\n   \"createdBy\": \"<string>\",\n   \"createdServingModel\": \"<boolean>\",\n   \"description\": \"<string>\",\n   \"epoch\": \"<long>\",\n   \"externalReference\": \"<string>\",\n   \"hits\": \"<long>\",\n   \"id\": \"<string>\",\n   \"inTraining\": \"<boolean>\",\n   \"language\": \"<string>\",\n   \"lastModified\": \"<dateTime>\",\n   \"modelVersion\": \"<long>\",\n   \"name\": \"<string>\",\n   \"nextModelVersion\": \"<long>\",\n   \"updatedBy\": \"<string>\",\n   \"username\": \"<string>\",\n   \"version\": \"<long>\"\n  },\n  \"createdAt\": \"<dateTime>\",\n  \"createdBy\": \"<string>\",\n  \"description\": \"<string>\",\n  \"id\": \"<string>\",\n  \"lastModified\": \"<dateTime>\",\n  \"name\": \"<string>\",\n  \"updatedBy\": \"<string>\",\n  \"version\": \"<long>\"\n },\n \"field\": \"<string>\",\n \"message\": \"<string>\",\n \"status\": \"<integer>\"\n}"
						},
						{
							"name": "Unauthorized",
							"originalRequest": {
								"method": "GET",
								"header": [],
								"url": {
									"raw": "{{baseUrl}}/entities?page=<integer>&sort=<boolean>&direction=<string>&column=<string>&condition=<string>,<string>",
									"host": [
										"{{baseUrl}}"
									],
									"path": [
										"entities"
									],
									"query": [
										{
											"key": "page",
											"value": "<integer>"
										},
										{
											"key": "sort",
											"value": "<boolean>"
										},
										{
											"key": "direction",
											"value": "<string>"
										},
										{
											"key": "column",
											"value": "<string>"
										},
										{
											"key": "condition",
											"value": "<string>,<string>"
										}
									]
								}
							},
							"status": "Unauthorized",
							"code": 401,
							"_postman_previewlanguage": "text",
							"header": [
								{
									"key": "Content-Type",
									"value": "text/plain"
								}
							],
							"cookie": [],
							"body": ""
						},
						{
							"name": "Not Found",
							"originalRequest": {
								"method": "GET",
								"header": [
									{
										"key": "Authorization",
										"value": "<string>",
										"description": "JWT security token obtained from the service method api/token.Token must be sent in header request e.g: Authorization: Bearer <TOKEN>replacing <TOKEN> by a valid token"
									},
									{
										"key": "API-KEY",
										"value": "{{apiKey}}>",
										"description": "API KEY are unique to users and are used to access resources without going through prior authentication"
									},
									{
										"key": "Authorization",
										"value": "<string>",
										"description": "JWT security token obtained from the service method api/token.Token must be sent in header request e.g: Authorization: Bearer <TOKEN>replacing <TOKEN> by a valid token"
									},
									{
										"key": "API-KEY",
										"value": "{{apiKey}}>",
										"description": "API KEY are unique to users and are used to access resources without going through prior authentication"
									},
									{
										"key": "Authorization",
										"value": "<string>",
										"description": "JWT security token obtained from the service method api/token.Token must be sent in header request e.g: Authorization: Bearer <TOKEN>replacing <TOKEN> by a valid token"
									},
									{
										"key": "API-KEY",
										"value": "{{apiKey}}>",
										"description": "API KEY are unique to users and are used to access resources without going through prior authentication"
									},
									{
										"key": "Authorization",
										"value": "<string>",
										"description": "JWT security token obtained from the service method api/token.Token must be sent in header request e.g: Authorization: Bearer <TOKEN>replacing <TOKEN> by a valid token"
									},
									{
										"key": "API-KEY",
										"value": "{{apiKey}}>",
										"description": "API KEY are unique to users and are used to access resources without going through prior authentication"
									}
								],
								"url": {
									"raw": "{{baseUrl}}/entities?page=<integer>&sort=<boolean>&direction=<string>&column=<string>&condition=<string>,<string>",
									"host": [
										"{{baseUrl}}"
									],
									"path": [
										"entities"
									],
									"query": [
										{
											"key": "page",
											"value": "<integer>"
										},
										{
											"key": "sort",
											"value": "<boolean>"
										},
										{
											"key": "direction",
											"value": "<string>"
										},
										{
											"key": "column",
											"value": "<string>"
										},
										{
											"key": "condition",
											"value": "<string>,<string>"
										}
									]
								}
							},
							"status": "Not Found",
							"code": 404,
							"_postman_previewlanguage": "text",
							"header": [
								{
									"key": "Content-Type",
									"value": "text/plain"
								}
							],
							"cookie": [],
							"body": ""
						},
						{
							"name": "Forbidden",
							"originalRequest": {
								"method": "GET",
								"header": [],
								"url": {
									"raw": "{{baseUrl}}/entities?page=<integer>&sort=<boolean>&direction=<string>&column=<string>&condition=<string>,<string>",
									"host": [
										"{{baseUrl}}"
									],
									"path": [
										"entities"
									],
									"query": [
										{
											"key": "page",
											"value": "<integer>"
										},
										{
											"key": "sort",
											"value": "<boolean>"
										},
										{
											"key": "direction",
											"value": "<string>"
										},
										{
											"key": "column",
											"value": "<string>"
										},
										{
											"key": "condition",
											"value": "<string>,<string>"
										}
									]
								}
							},
							"status": "Forbidden",
							"code": 403,
							"_postman_previewlanguage": "text",
							"header": [
								{
									"key": "Content-Type",
									"value": "text/plain"
								}
							],
							"cookie": [],
							"body": ""
						}
					]
				}
			],
			"protocolProfileBehavior": {}
		},
		{
			"name": "entities-values",
			"item": [
				{
					"name": "findAll",
					"event": [
						{
							"listen": "test",
							"script": {
								"id": "320eb8a9-fadb-4bed-8bb0-2f6b9a469329",
								"exec": [
									"pm.test(\"Status code is 200\", function () {",
									"    pm.response.to.have.status(200);",
									"});"
								],
								"type": "text/javascript"
							}
						}
					],
					"request": {
						"auth": {
							"type": "noauth"
						},
						"method": "GET",
						"header": [
							{
								"key": "Authorization",
								"value": "<string>",
								"description": "JWT security token obtained from the service method api/token.Token must be sent in header request e.g: Authorization: Bearer <TOKEN>replacing <TOKEN> by a valid token"
							},
							{
								"key": "API-KEY",
								"value": "{{apiKey}}",
								"description": "API KEY are unique to users and are used to access resources without going through prior authentication"
							}
						],
						"url": {
							"raw": "{{baseUrl}}/entities-values?",
							"host": [
								"{{baseUrl}}"
							],
							"path": [
								"entities-values"
							],
							"query": [
								{
									"key": "page",
									"value": "<integer>",
									"description": "page",
									"disabled": true
								},
								{
									"key": "sort",
									"value": "<boolean>",
									"description": "sort",
									"disabled": true
								},
								{
									"key": "direction",
									"value": "<string>",
									"description": "direction",
									"disabled": true
								},
								{
									"key": "column",
									"value": "<string>",
									"description": "column",
									"disabled": true
								},
								{
									"key": "condition",
									"value": "<string>,<string>",
									"description": "condition",
									"disabled": true
								}
							]
						}
					},
					"response": [
						{
							"name": "Not Found",
							"originalRequest": {
								"method": "GET",
								"header": [
									{
										"key": "Authorization",
										"value": "<string>",
										"description": "JWT security token obtained from the service method api/token.Token must be sent in header request e.g: Authorization: Bearer <TOKEN>replacing <TOKEN> by a valid token"
									},
									{
										"key": "API-KEY",
										"value": "{{apiKey}}>",
										"description": "API KEY are unique to users and are used to access resources without going through prior authentication"
									},
									{
										"key": "Authorization",
										"value": "<string>",
										"description": "JWT security token obtained from the service method api/token.Token must be sent in header request e.g: Authorization: Bearer <TOKEN>replacing <TOKEN> by a valid token"
									},
									{
										"key": "API-KEY",
										"value": "{{apiKey}}>",
										"description": "API KEY are unique to users and are used to access resources without going through prior authentication"
									},
									{
										"key": "Authorization",
										"value": "<string>",
										"description": "JWT security token obtained from the service method api/token.Token must be sent in header request e.g: Authorization: Bearer <TOKEN>replacing <TOKEN> by a valid token"
									},
									{
										"key": "API-KEY",
										"value": "{{apiKey}}>",
										"description": "API KEY are unique to users and are used to access resources without going through prior authentication"
									},
									{
										"key": "Authorization",
										"value": "<string>",
										"description": "JWT security token obtained from the service method api/token.Token must be sent in header request e.g: Authorization: Bearer <TOKEN>replacing <TOKEN> by a valid token"
									},
									{
										"key": "API-KEY",
										"value": "{{apiKey}}>",
										"description": "API KEY are unique to users and are used to access resources without going through prior authentication"
									}
								],
								"url": {
									"raw": "{{baseUrl}}/entities-values?page=<integer>&sort=<boolean>&direction=<string>&column=<string>&condition=<string>,<string>",
									"host": [
										"{{baseUrl}}"
									],
									"path": [
										"entities-values"
									],
									"query": [
										{
											"key": "page",
											"value": "<integer>"
										},
										{
											"key": "sort",
											"value": "<boolean>"
										},
										{
											"key": "direction",
											"value": "<string>"
										},
										{
											"key": "column",
											"value": "<string>"
										},
										{
											"key": "condition",
											"value": "<string>,<string>"
										}
									]
								}
							},
							"status": "Not Found",
							"code": 404,
							"_postman_previewlanguage": "text",
							"header": [
								{
									"key": "Content-Type",
									"value": "text/plain"
								}
							],
							"cookie": [],
							"body": ""
						},
						{
							"name": "OK",
							"originalRequest": {
								"method": "GET",
								"header": [],
								"url": {
									"raw": "{{baseUrl}}/entities-values?page=<integer>&sort=<boolean>&direction=<string>&column=<string>&condition=<string>,<string>",
									"host": [
										"{{baseUrl}}"
									],
									"path": [
										"entities-values"
									],
									"query": [
										{
											"key": "page",
											"value": "<integer>"
										},
										{
											"key": "sort",
											"value": "<boolean>"
										},
										{
											"key": "direction",
											"value": "<string>"
										},
										{
											"key": "column",
											"value": "<string>"
										},
										{
											"key": "condition",
											"value": "<string>,<string>"
										}
									]
								}
							},
							"status": "OK",
							"code": 200,
							"_postman_previewlanguage": "json",
							"header": [
								{
									"key": "Content-Type",
									"value": "application/json"
								}
							],
							"cookie": [],
							"body": "{\n \"code\": \"<string>\",\n \"data\": {\n  \"active\": \"<boolean>\",\n  \"createdAt\": \"<dateTime>\",\n  \"createdBy\": \"<string>\",\n  \"entity\": {\n   \"active\": \"<boolean>\",\n   \"cognition\": {\n    \"active\": \"<boolean>\",\n    \"client\": \"<string>\",\n    \"createdAt\": \"<dateTime>\",\n    \"createdBy\": \"<string>\",\n    \"createdServingModel\": \"<boolean>\",\n    \"description\": \"<string>\",\n    \"epoch\": \"<long>\",\n    \"externalReference\": \"<string>\",\n    \"hits\": \"<long>\",\n    \"id\": \"<string>\",\n    \"inTraining\": \"<boolean>\",\n    \"language\": \"<string>\",\n    \"lastModified\": \"<dateTime>\",\n    \"modelVersion\": \"<long>\",\n    \"name\": \"<string>\",\n    \"nextModelVersion\": \"<long>\",\n    \"updatedBy\": \"<string>\",\n    \"username\": \"<string>\",\n    \"version\": \"<long>\"\n   },\n   \"createdAt\": \"<dateTime>\",\n   \"createdBy\": \"<string>\",\n   \"description\": \"<string>\",\n   \"id\": \"<string>\",\n   \"lastModified\": \"<dateTime>\",\n   \"name\": \"<string>\",\n   \"updatedBy\": \"<string>\",\n   \"version\": \"<long>\"\n  },\n  \"entityType\": \"<string>\",\n  \"id\": \"<string>\",\n  \"key\": \"<string>\",\n  \"lastModified\": \"<dateTime>\",\n  \"updatedBy\": \"<string>\",\n  \"values\": [\n   \"<string>\",\n   \"<string>\"\n  ],\n  \"version\": \"<long>\"\n },\n \"field\": \"<string>\",\n \"message\": \"<string>\",\n \"status\": \"<integer>\"\n}"
						},
						{
							"name": "Unauthorized",
							"originalRequest": {
								"method": "GET",
								"header": [],
								"url": {
									"raw": "{{baseUrl}}/entities-values?page=<integer>&sort=<boolean>&direction=<string>&column=<string>&condition=<string>,<string>",
									"host": [
										"{{baseUrl}}"
									],
									"path": [
										"entities-values"
									],
									"query": [
										{
											"key": "page",
											"value": "<integer>"
										},
										{
											"key": "sort",
											"value": "<boolean>"
										},
										{
											"key": "direction",
											"value": "<string>"
										},
										{
											"key": "column",
											"value": "<string>"
										},
										{
											"key": "condition",
											"value": "<string>,<string>"
										}
									]
								}
							},
							"status": "Unauthorized",
							"code": 401,
							"_postman_previewlanguage": "text",
							"header": [
								{
									"key": "Content-Type",
									"value": "text/plain"
								}
							],
							"cookie": [],
							"body": ""
						},
						{
							"name": "Forbidden",
							"originalRequest": {
								"method": "GET",
								"header": [],
								"url": {
									"raw": "{{baseUrl}}/entities-values?page=<integer>&sort=<boolean>&direction=<string>&column=<string>&condition=<string>,<string>",
									"host": [
										"{{baseUrl}}"
									],
									"path": [
										"entities-values"
									],
									"query": [
										{
											"key": "page",
											"value": "<integer>"
										},
										{
											"key": "sort",
											"value": "<boolean>"
										},
										{
											"key": "direction",
											"value": "<string>"
										},
										{
											"key": "column",
											"value": "<string>"
										},
										{
											"key": "condition",
											"value": "<string>,<string>"
										}
									]
								}
							},
							"status": "Forbidden",
							"code": 403,
							"_postman_previewlanguage": "text",
							"header": [
								{
									"key": "Content-Type",
									"value": "text/plain"
								}
							],
							"cookie": [],
							"body": ""
						}
					]
				}
			],
			"protocolProfileBehavior": {}
		},
		{
			"name": "heartbeat",
			"item": [
				{
					"name": "beat",
					"event": [
						{
							"listen": "test",
							"script": {
								"id": "7586e661-28ff-48db-bb91-dff9776bff1c",
								"exec": [
									"pm.test(\"Status code is 200\", function () {",
									"    pm.response.to.have.status(200);",
									"});"
								],
								"type": "text/javascript"
							}
						}
					],
					"request": {
						"auth": {
							"type": "noauth"
						},
						"method": "GET",
						"header": [
							{
								"key": "Authorization",
								"value": "<string>",
								"description": "JWT security token obtained from the service method api/token.Token must be sent in header request e.g: Authorization: Bearer <TOKEN>replacing <TOKEN> by a valid token"
							},
							{
								"key": "API-KEY",
								"value": "{{apiKey}}",
								"description": "API KEY are unique to users and are used to access resources without going through prior authentication"
							}
						],
						"url": {
							"raw": "{{baseUrl}}/heartbeat",
							"host": [
								"{{baseUrl}}"
							],
							"path": [
								"heartbeat"
							]
						}
					},
					"response": [
						{
							"name": "Forbidden",
							"originalRequest": {
								"method": "GET",
								"header": [],
								"url": {
									"raw": "{{baseUrl}}/heartbeat",
									"host": [
										"{{baseUrl}}"
									],
									"path": [
										"heartbeat"
									]
								}
							},
							"status": "Forbidden",
							"code": 403,
							"_postman_previewlanguage": "text",
							"header": [
								{
									"key": "Content-Type",
									"value": "text/plain"
								}
							],
							"cookie": [],
							"body": ""
						},
						{
							"name": "OK",
							"originalRequest": {
								"method": "GET",
								"header": [],
								"url": {
									"raw": "{{baseUrl}}/heartbeat",
									"host": [
										"{{baseUrl}}"
									],
									"path": [
										"heartbeat"
									]
								}
							},
							"status": "OK",
							"code": 200,
							"_postman_previewlanguage": "json",
							"header": [
								{
									"key": "Content-Type",
									"value": "application/json"
								}
							],
							"cookie": [],
							"body": "\"<object>\""
						},
						{
							"name": "Not Found",
							"originalRequest": {
								"method": "GET",
								"header": [
									{
										"key": "Authorization",
										"value": "<string>",
										"description": "JWT security token obtained from the service method api/token.Token must be sent in header request e.g: Authorization: Bearer <TOKEN>replacing <TOKEN> by a valid token"
									},
									{
										"key": "API-KEY",
										"value": "{{apiKey}}>",
										"description": "API KEY are unique to users and are used to access resources without going through prior authentication"
									},
									{
										"key": "Authorization",
										"value": "<string>",
										"description": "JWT security token obtained from the service method api/token.Token must be sent in header request e.g: Authorization: Bearer <TOKEN>replacing <TOKEN> by a valid token"
									},
									{
										"key": "API-KEY",
										"value": "{{apiKey}}>",
										"description": "API KEY are unique to users and are used to access resources without going through prior authentication"
									},
									{
										"key": "Authorization",
										"value": "<string>",
										"description": "JWT security token obtained from the service method api/token.Token must be sent in header request e.g: Authorization: Bearer <TOKEN>replacing <TOKEN> by a valid token"
									},
									{
										"key": "API-KEY",
										"value": "{{apiKey}}>",
										"description": "API KEY are unique to users and are used to access resources without going through prior authentication"
									},
									{
										"key": "Authorization",
										"value": "<string>",
										"description": "JWT security token obtained from the service method api/token.Token must be sent in header request e.g: Authorization: Bearer <TOKEN>replacing <TOKEN> by a valid token"
									},
									{
										"key": "API-KEY",
										"value": "{{apiKey}}>",
										"description": "API KEY are unique to users and are used to access resources without going through prior authentication"
									}
								],
								"url": {
									"raw": "{{baseUrl}}/heartbeat",
									"host": [
										"{{baseUrl}}"
									],
									"path": [
										"heartbeat"
									]
								}
							},
							"status": "Not Found",
							"code": 404,
							"_postman_previewlanguage": "text",
							"header": [
								{
									"key": "Content-Type",
									"value": "text/plain"
								}
							],
							"cookie": [],
							"body": ""
						},
						{
							"name": "Unauthorized",
							"originalRequest": {
								"method": "GET",
								"header": [],
								"url": {
									"raw": "{{baseUrl}}/heartbeat",
									"host": [
										"{{baseUrl}}"
									],
									"path": [
										"heartbeat"
									]
								}
							},
							"status": "Unauthorized",
							"code": 401,
							"_postman_previewlanguage": "text",
							"header": [
								{
									"key": "Content-Type",
									"value": "text/plain"
								}
							],
							"cookie": [],
							"body": ""
						}
					]
				},
				{
					"name": "beat",
					"event": [
						{
							"listen": "test",
							"script": {
								"id": "02d35b42-ef13-4dd2-803b-e0d85e34cb44",
								"exec": [
									"pm.test(\"Status code is 200\", function () {",
									"    pm.response.to.have.status(200);",
									"});"
								],
								"type": "text/javascript"
							}
						}
					],
					"request": {
						"auth": {
							"type": "noauth"
						},
						"method": "GET",
						"header": [
							{
								"key": "Authorization",
								"value": "<string>",
								"description": "JWT security token obtained from the service method api/token.Token must be sent in header request e.g: Authorization: Bearer <TOKEN>replacing <TOKEN> by a valid token"
							},
							{
								"key": "API-KEY",
								"value": "{{apiKey}}",
								"description": "API KEY are unique to users and are used to access resources without going through prior authentication"
							}
						],
						"url": {
							"raw": "{{baseUrl}}/heartbeat/pulse",
							"host": [
								"{{baseUrl}}"
							],
							"path": [
								"heartbeat",
								"pulse"
							]
						}
					},
					"response": [
						{
							"name": "Unauthorized",
							"originalRequest": {
								"method": "GET",
								"header": [],
								"url": {
									"raw": "{{baseUrl}}/heartbeat/pulse",
									"host": [
										"{{baseUrl}}"
									],
									"path": [
										"heartbeat",
										"pulse"
									]
								}
							},
							"status": "Unauthorized",
							"code": 401,
							"_postman_previewlanguage": "text",
							"header": [
								{
									"key": "Content-Type",
									"value": "text/plain"
								}
							],
							"cookie": [],
							"body": ""
						},
						{
							"name": "OK",
							"originalRequest": {
								"method": "GET",
								"header": [],
								"url": {
									"raw": "{{baseUrl}}/heartbeat/pulse",
									"host": [
										"{{baseUrl}}"
									],
									"path": [
										"heartbeat",
										"pulse"
									]
								}
							},
							"status": "OK",
							"code": 200,
							"_postman_previewlanguage": "json",
							"header": [
								{
									"key": "Content-Type",
									"value": "application/json"
								}
							],
							"cookie": [],
							"body": "\"<object>\""
						},
						{
							"name": "Not Found",
							"originalRequest": {
								"method": "GET",
								"header": [
									{
										"key": "Authorization",
										"value": "<string>",
										"description": "JWT security token obtained from the service method api/token.Token must be sent in header request e.g: Authorization: Bearer <TOKEN>replacing <TOKEN> by a valid token"
									},
									{
										"key": "API-KEY",
										"value": "{{apiKey}}>",
										"description": "API KEY are unique to users and are used to access resources without going through prior authentication"
									},
									{
										"key": "Authorization",
										"value": "<string>",
										"description": "JWT security token obtained from the service method api/token.Token must be sent in header request e.g: Authorization: Bearer <TOKEN>replacing <TOKEN> by a valid token"
									},
									{
										"key": "API-KEY",
										"value": "{{apiKey}}>",
										"description": "API KEY are unique to users and are used to access resources without going through prior authentication"
									},
									{
										"key": "Authorization",
										"value": "<string>",
										"description": "JWT security token obtained from the service method api/token.Token must be sent in header request e.g: Authorization: Bearer <TOKEN>replacing <TOKEN> by a valid token"
									},
									{
										"key": "API-KEY",
										"value": "{{apiKey}}>",
										"description": "API KEY are unique to users and are used to access resources without going through prior authentication"
									},
									{
										"key": "Authorization",
										"value": "<string>",
										"description": "JWT security token obtained from the service method api/token.Token must be sent in header request e.g: Authorization: Bearer <TOKEN>replacing <TOKEN> by a valid token"
									},
									{
										"key": "API-KEY",
										"value": "{{apiKey}}>",
										"description": "API KEY are unique to users and are used to access resources without going through prior authentication"
									}
								],
								"url": {
									"raw": "{{baseUrl}}/heartbeat/pulse",
									"host": [
										"{{baseUrl}}"
									],
									"path": [
										"heartbeat",
										"pulse"
									]
								}
							},
							"status": "Not Found",
							"code": 404,
							"_postman_previewlanguage": "text",
							"header": [
								{
									"key": "Content-Type",
									"value": "text/plain"
								}
							],
							"cookie": [],
							"body": ""
						},
						{
							"name": "Forbidden",
							"originalRequest": {
								"method": "GET",
								"header": [],
								"url": {
									"raw": "{{baseUrl}}/heartbeat/pulse",
									"host": [
										"{{baseUrl}}"
									],
									"path": [
										"heartbeat",
										"pulse"
									]
								}
							},
							"status": "Forbidden",
							"code": 403,
							"_postman_previewlanguage": "text",
							"header": [
								{
									"key": "Content-Type",
									"value": "text/plain"
								}
							],
							"cookie": [],
							"body": ""
						}
					]
				}
			],
			"protocolProfileBehavior": {}
		},
		{
			"name": "intents",
			"item": [
				{
					"name": "findAll",
					"event": [
						{
							"listen": "test",
							"script": {
								"id": "18fb453e-866c-43a2-8f0a-deb72376f6b5",
								"exec": [
									"pm.test(\"Status code is 200\", function () {",
									"    pm.response.to.have.status(200);",
									"});"
								],
								"type": "text/javascript"
							}
						}
					],
					"request": {
						"auth": {
							"type": "noauth"
						},
						"method": "GET",
						"header": [
							{
								"key": "Authorization",
								"value": "<string>",
								"description": "JWT security token obtained from the service method api/token.Token must be sent in header request e.g: Authorization: Bearer <TOKEN>replacing <TOKEN> by a valid token"
							},
							{
								"key": "API-KEY",
								"value": "{{apiKey}}",
								"description": "API KEY are unique to users and are used to access resources without going through prior authentication"
							}
						],
						"url": {
							"raw": "{{baseUrl}}/intents?",
							"host": [
								"{{baseUrl}}"
							],
							"path": [
								"intents"
							],
							"query": [
								{
									"key": "page",
									"value": "<integer>",
									"description": "page",
									"disabled": true
								},
								{
									"key": "sort",
									"value": "<boolean>",
									"description": "sort",
									"disabled": true
								},
								{
									"key": "direction",
									"value": "<string>",
									"description": "direction",
									"disabled": true
								},
								{
									"key": "column",
									"value": "<string>",
									"description": "column",
									"disabled": true
								},
								{
									"key": "condition",
									"value": "<string>,<string>",
									"description": "condition",
									"disabled": true
								}
							]
						}
					},
					"response": [
						{
							"name": "Unauthorized",
							"originalRequest": {
								"method": "GET",
								"header": [],
								"url": {
									"raw": "{{baseUrl}}/intents?page=<integer>&sort=<boolean>&direction=<string>&column=<string>&condition=<string>,<string>",
									"host": [
										"{{baseUrl}}"
									],
									"path": [
										"intents"
									],
									"query": [
										{
											"key": "page",
											"value": "<integer>"
										},
										{
											"key": "sort",
											"value": "<boolean>"
										},
										{
											"key": "direction",
											"value": "<string>"
										},
										{
											"key": "column",
											"value": "<string>"
										},
										{
											"key": "condition",
											"value": "<string>,<string>"
										}
									]
								}
							},
							"status": "Unauthorized",
							"code": 401,
							"_postman_previewlanguage": "text",
							"header": [
								{
									"key": "Content-Type",
									"value": "text/plain"
								}
							],
							"cookie": [],
							"body": ""
						},
						{
							"name": "Forbidden",
							"originalRequest": {
								"method": "GET",
								"header": [],
								"url": {
									"raw": "{{baseUrl}}/intents?page=<integer>&sort=<boolean>&direction=<string>&column=<string>&condition=<string>,<string>",
									"host": [
										"{{baseUrl}}"
									],
									"path": [
										"intents"
									],
									"query": [
										{
											"key": "page",
											"value": "<integer>"
										},
										{
											"key": "sort",
											"value": "<boolean>"
										},
										{
											"key": "direction",
											"value": "<string>"
										},
										{
											"key": "column",
											"value": "<string>"
										},
										{
											"key": "condition",
											"value": "<string>,<string>"
										}
									]
								}
							},
							"status": "Forbidden",
							"code": 403,
							"_postman_previewlanguage": "text",
							"header": [
								{
									"key": "Content-Type",
									"value": "text/plain"
								}
							],
							"cookie": [],
							"body": ""
						},
						{
							"name": "Not Found",
							"originalRequest": {
								"method": "GET",
								"header": [
									{
										"key": "Authorization",
										"value": "<string>",
										"description": "JWT security token obtained from the service method api/token.Token must be sent in header request e.g: Authorization: Bearer <TOKEN>replacing <TOKEN> by a valid token"
									},
									{
										"key": "API-KEY",
										"value": "{{apiKey}}>",
										"description": "API KEY are unique to users and are used to access resources without going through prior authentication"
									},
									{
										"key": "Authorization",
										"value": "<string>",
										"description": "JWT security token obtained from the service method api/token.Token must be sent in header request e.g: Authorization: Bearer <TOKEN>replacing <TOKEN> by a valid token"
									},
									{
										"key": "API-KEY",
										"value": "{{apiKey}}>",
										"description": "API KEY are unique to users and are used to access resources without going through prior authentication"
									},
									{
										"key": "Authorization",
										"value": "<string>",
										"description": "JWT security token obtained from the service method api/token.Token must be sent in header request e.g: Authorization: Bearer <TOKEN>replacing <TOKEN> by a valid token"
									},
									{
										"key": "API-KEY",
										"value": "{{apiKey}}>",
										"description": "API KEY are unique to users and are used to access resources without going through prior authentication"
									},
									{
										"key": "Authorization",
										"value": "<string>",
										"description": "JWT security token obtained from the service method api/token.Token must be sent in header request e.g: Authorization: Bearer <TOKEN>replacing <TOKEN> by a valid token"
									},
									{
										"key": "API-KEY",
										"value": "{{apiKey}}>",
										"description": "API KEY are unique to users and are used to access resources without going through prior authentication"
									}
								],
								"url": {
									"raw": "{{baseUrl}}/intents?page=<integer>&sort=<boolean>&direction=<string>&column=<string>&condition=<string>,<string>",
									"host": [
										"{{baseUrl}}"
									],
									"path": [
										"intents"
									],
									"query": [
										{
											"key": "page",
											"value": "<integer>"
										},
										{
											"key": "sort",
											"value": "<boolean>"
										},
										{
											"key": "direction",
											"value": "<string>"
										},
										{
											"key": "column",
											"value": "<string>"
										},
										{
											"key": "condition",
											"value": "<string>,<string>"
										}
									]
								}
							},
							"status": "Not Found",
							"code": 404,
							"_postman_previewlanguage": "text",
							"header": [
								{
									"key": "Content-Type",
									"value": "text/plain"
								}
							],
							"cookie": [],
							"body": ""
						},
						{
							"name": "OK",
							"originalRequest": {
								"method": "GET",
								"header": [],
								"url": {
									"raw": "{{baseUrl}}/intents?page=<integer>&sort=<boolean>&direction=<string>&column=<string>&condition=<string>,<string>",
									"host": [
										"{{baseUrl}}"
									],
									"path": [
										"intents"
									],
									"query": [
										{
											"key": "page",
											"value": "<integer>"
										},
										{
											"key": "sort",
											"value": "<boolean>"
										},
										{
											"key": "direction",
											"value": "<string>"
										},
										{
											"key": "column",
											"value": "<string>"
										},
										{
											"key": "condition",
											"value": "<string>,<string>"
										}
									]
								}
							},
							"status": "OK",
							"code": 200,
							"_postman_previewlanguage": "json",
							"header": [
								{
									"key": "Content-Type",
									"value": "application/json"
								}
							],
							"cookie": [],
							"body": "{\n \"code\": \"<string>\",\n \"data\": {\n  \"active\": \"<boolean>\",\n  \"cognition\": {\n   \"active\": \"<boolean>\",\n   \"client\": \"<string>\",\n   \"createdAt\": \"<dateTime>\",\n   \"createdBy\": \"<string>\",\n   \"createdServingModel\": \"<boolean>\",\n   \"description\": \"<string>\",\n   \"epoch\": \"<long>\",\n   \"externalReference\": \"<string>\",\n   \"hits\": \"<long>\",\n   \"id\": \"<string>\",\n   \"inTraining\": \"<boolean>\",\n   \"language\": \"<string>\",\n   \"lastModified\": \"<dateTime>\",\n   \"modelVersion\": \"<long>\",\n   \"name\": \"<string>\",\n   \"nextModelVersion\": \"<long>\",\n   \"updatedBy\": \"<string>\",\n   \"username\": \"<string>\",\n   \"version\": \"<long>\"\n  },\n  \"createdAt\": \"<dateTime>\",\n  \"createdBy\": \"<string>\",\n  \"description\": \"<string>\",\n  \"id\": \"<string>\",\n  \"lastModified\": \"<dateTime>\",\n  \"name\": \"<string>\",\n  \"patterns\": [\n   \"<string>\",\n   \"<string>\"\n  ],\n  \"updatedBy\": \"<string>\",\n  \"version\": \"<long>\"\n },\n \"field\": \"<string>\",\n \"message\": \"<string>\",\n \"status\": \"<integer>\"\n}"
						}
					]
				}
			],
			"protocolProfileBehavior": {}
		},
		{
			"name": "Login/Auth Token",
			"event": [
				{
					"listen": "test",
					"script": {
						"id": "2b30cfd6-80ba-46f7-bb09-c907609379b7",
						"exec": [
							"pm.test(\"Status code is 200\", function () {",
							"    pm.response.to.have.status(200);",
							"});"
						],
						"type": "text/javascript"
					}
				}
			],
			"request": {
				"auth": {
					"type": "noauth"
				},
				"method": "POST",
				"header": [
					{
						"key": "Content-Type",
						"value": "application/x-www-form-urlencoded"
					}
				],
				"body": {
					"mode": "urlencoded",
					"urlencoded": [
						{
							"key": "username",
							"value": "admin@ian.com.br",
							"description": "Login of user"
						},
						{
							"key": "password",
							"value": "12345678",
							"description": "Password of user"
						}
					]
				},
				"url": {
					"raw": "{{baseUrl}}/login",
					"host": [
						"{{baseUrl}}"
					],
					"path": [
						"login"
					]
				},
				"description": "Create a new token"
			},
			"response": [
				{
					"name": "Default response",
					"originalRequest": {
						"method": "POST",
						"header": [],
						"body": {
							"mode": "urlencoded",
							"urlencoded": [
								{
									"key": "username",
									"value": "admin@ian.com.br",
									"description": {
										"content": "Login of user",
										"type": "text/plain"
									}
								},
								{
									"key": "password",
									"value": "12345678",
									"description": {
										"content": "Password of user",
										"type": "text/plain"
									}
								}
							]
						},
						"url": {
							"raw": "{{baseUrl}}/login",
							"host": [
								"{{baseUrl}}"
							],
							"path": [
								"login"
							]
						}
					},
					"status": "Internal Server Error",
					"code": 500,
					"_postman_previewlanguage": "text",
					"header": [
						{
							"key": "Content-Type",
							"value": "text/plain"
						}
					],
					"cookie": [],
					"body": ""
				}
			]
		},
		{
			"name": "getLoggedUser",
			"event": [
				{
					"listen": "test",
					"script": {
						"id": "174f2399-3315-4e92-b160-df790416eac3",
						"exec": [
							"pm.test(\"Status code is 400\", function () {",
							"    pm.response.to.have.status(400);",
							"});"
						],
						"type": "text/javascript"
					}
				}
			],
			"request": {
				"auth": {
					"type": "noauth"
				},
				"method": "GET",
				"header": [
					{
						"key": "Authorization",
						"value": "<string>",
						"description": "JWT security token obtained from the service method api/token.Token must be sent in header request e.g: Authorization: Bearer <TOKEN>replacing <TOKEN> by a valid token"
					},
					{
						"key": "API-KEY",
						"value": "<string>",
						"description": "API KEY are unique to users and are used to access resources without going through prior authentication"
					}
				],
				"url": {
					"raw": "{{baseUrl}}/users/me",
					"host": [
						"{{baseUrl}}"
					],
					"path": [
						"users",
						"me"
					]
				}
			},
			"response": [
				{
					"name": "Unauthorized",
					"originalRequest": {
						"method": "GET",
						"header": [],
						"url": {
							"raw": "{{baseUrl}}/users/me",
							"host": [
								"{{baseUrl}}"
							],
							"path": [
								"users",
								"me"
							]
						}
					},
					"status": "Unauthorized",
					"code": 401,
					"_postman_previewlanguage": "text",
					"header": [
						{
							"key": "Content-Type",
							"value": "text/plain"
						}
					],
					"cookie": [],
					"body": ""
				},
				{
					"name": "Forbidden",
					"originalRequest": {
						"method": "GET",
						"header": [],
						"url": {
							"raw": "{{baseUrl}}/users/me",
							"host": [
								"{{baseUrl}}"
							],
							"path": [
								"users",
								"me"
							]
						}
					},
					"status": "Forbidden",
					"code": 403,
					"_postman_previewlanguage": "text",
					"header": [
						{
							"key": "Content-Type",
							"value": "text/plain"
						}
					],
					"cookie": [],
					"body": ""
				},
				{
					"name": "OK",
					"originalRequest": {
						"method": "GET",
						"header": [],
						"url": {
							"raw": "{{baseUrl}}/users/me",
							"host": [
								"{{baseUrl}}"
							],
							"path": [
								"users",
								"me"
							]
						}
					},
					"status": "OK",
					"code": 200,
					"_postman_previewlanguage": "json",
					"header": [
						{
							"key": "Content-Type",
							"value": "application/json"
						}
					],
					"cookie": [],
					"body": "{\n \"code\": \"<string>\",\n \"data\": \"<object>\",\n \"field\": \"<string>\",\n \"message\": \"<string>\",\n \"status\": \"<integer>\"\n}"
				},
				{
					"name": "Not Found",
					"originalRequest": {
						"method": "GET",
						"header": [
							{
								"key": "Authorization",
								"value": "<string>",
								"description": "JWT security token obtained from the service method api/token.Token must be sent in header request e.g: Authorization: Bearer <TOKEN>replacing <TOKEN> by a valid token"
							},
							{
								"key": "API-KEY",
								"value": "{{apiKey}}",
								"description": "API KEY are unique to users and are used to access resources without going through prior authentication"
							},
							{
								"key": "Authorization",
								"value": "<string>",
								"description": "JWT security token obtained from the service method api/token.Token must be sent in header request e.g: Authorization: Bearer <TOKEN>replacing <TOKEN> by a valid token"
							},
							{
								"key": "API-KEY",
								"value": "{{apiKey}}",
								"description": "API KEY are unique to users and are used to access resources without going through prior authentication"
							},
							{
								"key": "Authorization",
								"value": "<string>",
								"description": "JWT security token obtained from the service method api/token.Token must be sent in header request e.g: Authorization: Bearer <TOKEN>replacing <TOKEN> by a valid token"
							},
							{
								"key": "API-KEY",
								"value": "{{apiKey}}",
								"description": "API KEY are unique to users and are used to access resources without going through prior authentication"
							},
							{
								"key": "Authorization",
								"value": "<string>",
								"description": "JWT security token obtained from the service method api/token.Token must be sent in header request e.g: Authorization: Bearer <TOKEN>replacing <TOKEN> by a valid token"
							},
							{
								"key": "API-KEY",
								"value": "{{apiKey}}",
								"description": "API KEY are unique to users and are used to access resources without going through prior authentication"
							}
						],
						"url": {
							"raw": "{{baseUrl}}/users/me",
							"host": [
								"{{baseUrl}}"
							],
							"path": [
								"users",
								"me"
							]
						}
					},
					"status": "Not Found",
					"code": 404,
					"_postman_previewlanguage": "text",
					"header": [
						{
							"key": "Content-Type",
							"value": "text/plain"
						}
					],
					"cookie": [],
					"body": ""
				}
			]
		}
	],
	"event": [
		{
			"listen": "prerequest",
			"script": {
				"id": "1b11b521-c9d5-4f92-a6d5-9b130402100f",
				"type": "text/javascript",
				"exec": [
					""
				]
			}
		},
		{
			"listen": "test",
			"script": {
				"id": "133929df-f39b-486c-9ecd-f475085e4a05",
				"type": "text/javascript",
				"exec": [
					""
				]
			}
		}
	],
	"variable": [
		{
			"id": "8c6afe1c-f7d6-49ae-b059-96b51209bde3",
			"key": "baseUrl",
			"value": "https://ian-dev-novo.tm2digital.com/conversation-api",
			"type": "string"
		},
		{
			"id": "71961ac9-4a93-429e-8ce8-fbafddb071c4",
			"key": "apiKey",
			"value": "OSqn0se9tMysUT4mEPTBuDKcJcHFbFzmgJyDjVC11dw6idgWfP",
			"type": "string"
		}
	],
	"protocolProfileBehavior": {}
}